-=₪۩۞۩₪=- 
●±‡±● 
ҳ̸Ҳ̸Ҳ̸ҳ 
ӿ̸Ӿ̸Ӿ̸ӿ 
ӝ̸Ӄ̸Ӄ̸ӝ 
∂6•^v^•∂6 
╰☆╮ 
╰♡╮ 
╰☼╮ 
─═☆☆═─ 
∇▲∇▲ 
■□■□■ 
║▌║│█║▌║ 
╔╣█╠╗ 
_/¯/__/¯/_ 
(¯`·._) 
╚╝╔╗╚╝╔╗ 
•^v^• 
°☀. °☀. °☀. 
**´¯`**´¯`** 
oºº''ººoº*ºo 
¤.·´`·.¤ 
=-[~_-¯¯-_~]- 
°l||l° 
·!¦[]¦!· 
·ï¡÷¡ï· 
]¦•¦[ 
-·=»‡«=·- 
¨‘°ºO×º°”˜`”°º×Oº°‘¨ 
×º°”˜`”°º× 
¯¨'*·~-.¸¸,.-~*' 
•·.·´¯`·.·• 
`·.¸¸.·´´¯`··._.· 
•´`·..íì..·´`• 
·]¦÷¦[· 
[`·.] 
[.·´] 
._¤´¯`¤._. 
°º¤ø,¸¸,ø¤º°`°º¤ø,¸ 
-·~¹'°¨°'¹i|¡¡|i¹'°¨°'¹~·- 
¨˜ª· , ¸, ·ª˜¨ 
¯`·.__.·´¯ 
•´¯¥¯`• 
‹–…·´`·…–› 
‹¦[₪]¦› 
‹¦[♥]¦› 
‹¦[☆]¦› 
.´¯`./¯\.´¯`. 
¯°º¤¤º°¯ 
_*_.·´¯`·._*_ 
•°•.•°• 
°¨¨°º°¨¨° 
+°·!¦[·%·]¦!·°+ 
¨‘°ºO•·.·´`·.·•Oº°‘¨ 
··¤(`×[¤]×´)¤·· 
|!¤*'~``~'*¤!|| 
★·.·¯`·.·★ 
;`';_._;`';_. 
°•. °•. °•. 
-·=»◆‡◆«=·- 
๑۩۞۩๑ 
╱ ╲ 
♡´`·♥·´`♡ 
¯`·´·.·´·´¯ 
¯`¦♥¦´¯ 
◢ ♂ ◣ ◥ ♀ ◤ 
.•°¤*(¯`★´¯)*¤°• 
.•°¤*(¯`☆´¯)*¤°•. 
.•°¤*(¯`♥´¯)*¤°•. 
--•^v^–^v^•-- 
`·..·´·ï¡÷¡ï·`·..·´ 
¯°º¤¯°º¤¤º°¯¤º°¯ 
_.¤´¯`¤._.¤´¯`¤._ 
¨°o.¨°o.※.o°¨.o°¨ 
†,.-~*'¨¨'*·~-.¸† 
´¯`×·÷×·.·´¯ 
•-)•–––––•(-• 
✖´`·.·´`✖ 
✿´`·.·´`✿ 
∵ ∴ 
♥´`·.·´`♥ 
«----´¯`----» 
«-´¯`v^÷•÷^v´¯`-» 
♥》★《♥ 
ᄽ☺☻☺ᄽ 
Ξ回回Ξ 
回╔믐믐╗回 
ϟϞ҂ϔ҂Ϟϟ 
ϟ҂Җ҂ϟ 
ШшλшШ 
ѠϿїϾѠ 
ԆԄ۝ԄԆ 
ᵯᵰᵯᵰ 
₮₮₮₮₮ 
█░█░█░ 
†††† 
亗 亗 亗 
Ϟ°·.ϟ.·°Ϟ 
ϯϰ•´¯`•ϰϯ 
父ж＊ж父 
~vΛvΛv~ 
ıllıllı 
• ◦˚ஐ˚◦ • 
♪♬ ♩ ♭♪ 
╔♥╗╚♥╝ 
╔☆╗╚☆╝ 
╔★╗╚★╝ 
╔•╗╚•╝ 
ӝ̸Ӄ̸Ӄ̸ӝ 
Ԅ̸Ҵ̸Ҵ̸Ԅ 
Ұ̸Ҩ̸Ҩ̸Ұ 
Ԇ̸Ԇ̸Ԇ̸Ԇ 
Ԉ̸Ԉ̸Ԉ̸Ԉ 
Ӟ̸Ԏ̸Ԏ̸Ӟ 
ᴥ̸ᴤ̸ᴤ̸ᴥ 
ᵯ̸ᵯ̸ᵯ̸ᵯ 
ᶓ̸ᶓ̸ᶓ̸ᶓ 
ᶘ̸ᵮ̸ᵮ̸ᶘṀᶘ̸ᵮ̸ᵮ̸ᶘ 
۰۪۪۫۫●۪۫۰ 
❀○╮✲╭○❀ 
（( ）)（( ）)（( ）) 
⊱⊰⊱⊰⊱⊰⊱⊰ 
﹀︽︾△︾︽﹀ 
Ξ※◎☆★☆◎※Ξ 
♥》★《♥ 
_¯¯\_/¯¯_ 
彡)(彡 
〦〧〨亖〨〧〦 
∆∇∆∇ 
√∛∜∛√ 
∭∮∭ 
∧∺∧∺∧ 
.>>--» «---<< 
⊏∎⊐⊏∎⊐ 
≪∅≫≪↺≫ 
∧∺∧∺∧ 
⊼⊻⊼⊻ 
⊄⊅⊆⊇⊄⊅ 
⊑⊗⊒⊑⊕⊒ 
◤ ◥ 
◢ ◣ 
◥ ◤ 
⋐⋑⋐⋑ 
▀▄▀▄▀▄ 
░║ ║░ 
♋♌♋♌ 
☾☽☾☻☽☾☽ 
〇〄〇〄 
￣～＼～￣ 
〖〷〗 
‹※›‹※› 
●¸.•*¨Ƹ̵̡Ӝ̵̨̄Ʒ¨*•.¸● 
TEXTE ら†丫乚乞 
んエㄗ - んㄖㄗ 
Ł❤√Ɛ 
●๋• ٥ﻻ ﻉ√٥ﺎ ٱц ●๋• 
[̲̅ə̲̅٨̲̅٥̲̅٦̲̅] 
ᶫᵒᵛᵉᵧₒᵤ 
♥Ⓛⓞⓥⓔ♥ 
Ī Ŀ♡√Ɛ ß♡Ὺら 
ｷЦʗҚ ㄚ凸Ц 
εїз 
Ƹ̵̡Ӝ̵̨̄Ʒ 
ੳੴ 
食 
向 
┌∩┐ 
{†} 
⦅⦿⦿⦆ 
[̲̅*̲̅*̲̅*̲̅*̲̅*̲̅*̲̅] 
<°))))>< 
><((((°> 
(̅_̅_̅_̅(̅_̅_̅_̅_̅_̅_̅_̅_̅_̅_̅())) 
(̅_̅_̅_̅(̅_̅_̅_̅_̅_̅_̅_̅_̅_̅_̅()ڪے 
»-(¯`v´¯)-» 
/!\ 
|̲̲̲͡͡͡ ̲▫̲͡ ̲̲̲͡͡π̲̲͡͡ ̲̲͡▫̲̲͡͡ ̲| 

|͇̿D͇̿&͇̿G͇̿| 
ᄽ︾ᄿ 
ﱢﱟﱞﱡ۩ﱡﱞﱟﱢ 
[웃ღ웃] 
( ̲̅:̲̅:̲̅:̲̅[̲̅ ̲̅]̲̅:̲̅:̲̅:̲̅ ) 
_\|/_ 
·•●oO 
(¯`·._.· 
×÷·.·´¯`·)» 
\.·´¯`·-> 
•·.·¯`·.·• 
–--´¯`-----» 
(-._.·¤~¤·._.- 
(o©°¨¨°º©o·´¯) 
(¯`·..·´¯`· 
- ––––•(-• 
`·.„.•¤­‹» 
(¯`v^÷• 
(«·´º´·•[• 
·°¯`·• 
¯`·.__.·´¯» 
(¯`·./¯\.··{ 
»--((¯`·._ 
«------•}I|[ 
‹.·´¯`·.·´`·. 
×÷·´¯`·.·•[ 
<º))))><.·´¯`·. 
(_.¤´¯`¤._– 
¯`·.__.·´¯»¤ 
¤«¯`·.__.·´¯ 
¨˜ˆ”°¹~·-.„¸ 
«›-¤•.„.·´ 
•^v^–[ 
•°¤*(¯`°( 
(¯W¯(¯`{º 
·∙·:‡v:ҳ(`°• 
(¯`·.´¯`./¯\.·º·{» 
•°l¯l_l¯l* 
•°•.•°• 
»-(¯`v´¯)-» 
‹v^v^v^• 
‹‹¡Ì›–•¦[ 
°•.•°o.O 
••.•´¯`•.•• 
★★.·¯`★ 
♪•]•·º♫·》» 
•]•·✦º✦·» 
×÷·.·´¯`·)» 
«(·´¯`·.·÷× 
(×´¯`v^·· · 
•°o.O•°o.O 
—(•·÷[ 
·ï¡÷¡ï··!¦[· 
—¤÷(`[¤* 
(.•ˆ•…+* 
(¯`·.(¯`·. 
«------•}I|[ 
¤.·´`·.¤–´¯`-» 
(¯`·»o«·´¯`·> 
-♥-♡--^[ 
°·.¸.·°¯°·.¸.-< 
‹—•((.•ˆ•… 
{¯`·._.• .·´« 
ҳ̸Ҳ̸Ҳ̸ҳ(¯`·.•. 
<«-..·♥~♡·._.- 
«-¤-----♥}i!|[ 
(¯`·._*_.·´¯`·._*_.» 
▂▃▅▆ 
▂▃▄▅▆▇█▓▒░ 
▓▒░ 
（( · ）)（( 
〈〉〈〉〈 
◂◄◀ 
〈♥》 《＞ 
`·--●=»><«=● 
♡✜♡✜✷» 
‹—+((.#ˆ-.- 
.·●~◠◡◠✈ 
.-•*´¨`※› 
_¸.¤°´¯`⇉ 
<•>·.·´¯`·.·•↘ 
·´º´·¯`·⊙ 
︵✪°¨¨°\/°¨¨°° 
(¯`•.ゃ_ゃ.•° 
»-(¯`v´¯)-»-× ♡ 
¸.•♥•.¸¸.•♥ • 
.. ｡｡◦◦｡。◦ﾟ· 
·∙·÷±‡±:∙ 
-•°•.•°•––•(-• 
/\/\/\/~·-.„¸ 
((((¯♀'·.¸(★) 
(¯`·._)♣ ♤ ♥♠( 
..•.¸¸•´¯`•.¸¸.ஐ 
·*ღ♥´¯`*·.¸¸♥ღ 
°̅-̅-̅-’̿\̵͇̿̿\°» 
·•●★*´ 
-~*'¨¯¨'*·~㊅ 
▌▐▐║ 
ҳ̸Ҳ̸Ҳ̸ҳ·.¸.·°¯°·.¸_ 
Ⱳⱳ`·._.· 
˙·•ღ✿*´•·.·´ 
㋡ ® © ™ « » № ღ ♥ ♡ წ ❤ ❥ ❣ ★ ☆ ۝ ۞ ۩ ♂ ♀ ■ □ ∆ ∇ ▲ ► ▼ ◄ ◣ ◢ ◤ ◥ ◆ ◇ 〓 ● ☼ ☀ ☁ ☂ ♪ ♫ ✝ ✪ ✱ ✿ ❀ 屮 ஐ ₪ ✎ ░ ▒ ▒ ▓ █ ▌ ❘ 中 食 ♠ ♣ ҈ ஊ ஏ ｼ ㇱ ☋ ︵ ︶ ︽ ︾ ︿ ﹀ 〘 〙 〚 〛 《 》 ｟ ｠ 坤 埉 垞 坊 在 坤 〩 【 】 〔 〕 〖 〗 〄 々 ➨ ➲ ➜ ➢ 『 』 〠 〣 ✽ ✻ ✸ ✡ ♞ ♘ ♜ ♖ ♛ ♕ ➀ ➁ ➂ ➃ ➄ ➅ ➆ ➇ ➈ ➊ ➋ ➌ ➍ ➎ ➏ ➐ ➑ ➒ ☺ ☹ ☃ ☄ ☎ ☑ ☒ ☠ ☢ ☣ ☨ ☩ ☪ ☫ ☬ ☭ ☮ ☯ ✓ ✔ ✖ ✗ ✜ ✝ ✡ ✪ ✯ ✰ ✱ ✲ ✴ ✵ ✶ ✻ ✼ ✽ ✾ ✿ ❀ ❁ ❂ ❃ ❄ ❆ ❇ ❈ ❊ ❋ ❖ ❢ ❣ ❦ ﷺ ﷻ ﷹ ﷲ இ ௫ న ഏ ໘ ჻ ⁂ ҂ ৩ ৬ ੴ ઈ ઊ ண ఏ ໙ ‰ ← ↑ → ↓ ↔ ↕ ↖ ↗ ↘ ↙ ⇄ ⇅ ⇆ ↺ ↻ ↣ ↤ ↥ ↦ ↧ ↩ ↪ ↰ ↱ ↲ ↳ ↴ ↵ ♃ ♄ ♅ ♆ ♇ ♈ ♉ ♊ ♋ ♌ ♍ ♎ ♏ ♐ ♑ ♒ ♓ 
ت 
ټ 
ツ 
ジ 
㋡ 
㋛ 
<(^^,)> 
♪ d◕‿◕b ♪ 
<(^_^)> 
(｡◕‿◕｡) 
<(-_-)> 
(•ิ_•) 
<(o_o)> 
<(o_O)> 
<(・ε・)> 
(๏̯͡๏ 
٩͡๏̯͡๏۶ 
_(͡^̯^͡)_ 
_(͡๏̯͡๏)_ 
٩(●̮̮̃●̃)۶ 
(͡๏̯͡๏)۶ 
٩(-̮̮̃•̃)۶ 
٩(̾●̮̮̃̾•̃̾)۶ 
٩(×̯×)۶ 
٩(-̮̮̃-̃)۶ 
<(é_è)> 
<(è_é)> 
<(+_+)> 
(•̪●) 
<(-_o)> 
<(o_-)> 
•–(´^_^`)–• 
(。>_<。) 
(⊙▂⊙) 
(⊙︿⊙) 
(⊙ω⊙) 
(⊙﹏⊙) 
(⊙△⊙) 
(⊙▽⊙) 
(ʘ_ʘ) 
(ʚ_ʚ) 
(ര_ര) 
(ര‿ര) 
(♛‿♛) 
(◑▂◐) 
(◑︿◐) 
(◑ω◐) 
(♥‿♥) 
(◑﹏◐) 
｡◕‿◕ღ 
ღ◕‿◕｡ 
(◡‿◡) 
◡‿◡✿ 
(｡◕‿-｡) 
◕‿◕❤ 
{♥‿♥} 
{♥_♥} 
(⊗_⊙) 
(⊙﹏⊚) 
(⊛﹏⊛) 
(⊙‿⊝) 
(｡◕‿⊝｡) 
（・ι・） 
(｡´_｀) 
(｡´Λ｀｡) 
(＠ｏ＠;) 
（=^_^=） 
(=^｡^=) 
＼(・_・ ) 
( ・_・)／ 
（Φ_Φ） 
<{Φ_Φ}> 
(Ｉ・_・Ｉ) 
《≡^o^》 
(*'﹏'*) 
(*ΘェΘ*) 
(*▼▼)/ 
((s-_-)s 
(＝ｏ＝) 
ε[-ิิ_•ิ]з 
(*´﹏｀*) 
<[ ⊡_⊡ ]> 
（ミ◕‿◕ミ） 
┌∩┐(◣_◢)┌∩┐ 
(#‵′)凸 
凸(^_^)凸 
(‵▽′)ψ 
◣_◢ 
(^人^) 
（ミ●ω●ミ） 
o(╥﹏╥)o 
{{{(>_<)}}} 
[>\/<] 
（°ο°）~ @ 
ˋ▂ˊ 
ˇ△ˇ 
ˇ▽ˇ 
ˋ︿ˊ 
ˇ▂ˇ 
ˇ︿ˇ
